^C:\USERS\LENOVO\DESKTOP\CPP\PRACTICE\CH02_5\CH02_5\MEMMALFREE.CPP
C:\USERS\LENOVO\DESKTOP\CPP\PRACTICE\CH02_5\CH02_5\DEBUG\VC142.PDB
C:\USERS\LENOVO\DESKTOP\CPP\PRACTICE\CH02_5\CH02_5\DEBUG\VC142.IDB
C:\USERS\LENOVO\DESKTOP\CPP\PRACTICE\CH02_5\CH02_5\DEBUG\MEMMALFREE.OBJ
^C:\USERS\LENOVO\DESKTOP\CPP\PRACTICE\CH02_5\CH02_5\NEWDELETE.CPP
C:\USERS\LENOVO\DESKTOP\CPP\PRACTICE\CH02_5\CH02_5\DEBUG\VC142.PDB
C:\USERS\LENOVO\DESKTOP\CPP\PRACTICE\CH02_5\CH02_5\DEBUG\VC142.IDB
C:\USERS\LENOVO\DESKTOP\CPP\PRACTICE\CH02_5\CH02_5\DEBUG\NEWDELETE.OBJ
^C:\USERS\LENOVO\DESKTOP\CPP\PRACTICE\CH02_5\CH02_5\NEWOBJECT.CPP
C:\USERS\LENOVO\DESKTOP\CPP\PRACTICE\CH02_5\CH02_5\DEBUG\VC142.PDB
C:\USERS\LENOVO\DESKTOP\CPP\PRACTICE\CH02_5\CH02_5\DEBUG\VC142.IDB
C:\USERS\LENOVO\DESKTOP\CPP\PRACTICE\CH02_5\CH02_5\DEBUG\NEWOBJECT.OBJ
