^C:\USERS\LENOVO\DESKTOP\CPP\PROBLEM\PROB_CH01_4\PROB_CH01_4\DEFINITION.CPP|C:\USERS\LENOVO\DESKTOP\CPP\PROBLEM\PROB_CH01_4\PROB_CH01_4\MAIN.CPP
C:\USERS\LENOVO\DESKTOP\CPP\PROBLEM\PROB_CH01_4\PROB_CH01_4\DEBUG\VC142.PDB
C:\USERS\LENOVO\DESKTOP\CPP\PROBLEM\PROB_CH01_4\PROB_CH01_4\DEBUG\VC142.IDB
C:\USERS\LENOVO\DESKTOP\CPP\PROBLEM\PROB_CH01_4\PROB_CH01_4\DEBUG\MAIN.OBJ
C:\USERS\LENOVO\DESKTOP\CPP\PROBLEM\PROB_CH01_4\PROB_CH01_4\DEBUG\DEFINITION.OBJ
^C:\USERS\LENOVO\DESKTOP\CPP\PROBLEM\PROB_CH01_4\PROB_CH01_4\DEFINITION.CPP
C:\USERS\LENOVO\DESKTOP\CPP\PROBLEM\PROB_CH01_4\PROB_CH01_4\DEBUG\VC142.PDB
^C:\USERS\LENOVO\DESKTOP\CPP\PROBLEM\PROB_CH01_4\PROB_CH01_4\MAIN.CPP
C:\USERS\LENOVO\DESKTOP\CPP\PROBLEM\PROB_CH01_4\PROB_CH01_4\DEBUG\VC142.PDB
