^C:\USERS\LENOVO\DESKTOP\CPP\PROBLEM\PROB_02_1\PROB_02_1\DEBUG\Q1.OBJ
C:\USERS\LENOVO\DESKTOP\CPP\PROBLEM\PROB_02_1\DEBUG\PROB_CH02_1.EXE
C:\USERS\LENOVO\DESKTOP\CPP\PROBLEM\PROB_02_1\DEBUG\PROB_CH02_1.ILK
C:\USERS\LENOVO\DESKTOP\CPP\PROBLEM\PROB_02_1\DEBUG\PROB_CH02_1.PDB
