^C:\USERS\LENOVO\DESKTOP\CPP\PRACTICE\CH04_4\CH04_4\DEBUG\SELFREF.OBJ
C:\USERS\LENOVO\DESKTOP\CPP\PRACTICE\CH04_4\DEBUG\CH04_4.EXE
C:\USERS\LENOVO\DESKTOP\CPP\PRACTICE\CH04_4\DEBUG\CH04_4.ILK
C:\USERS\LENOVO\DESKTOP\CPP\PRACTICE\CH04_4\DEBUG\CH04_4.PDB
