^C:\USERS\LENOVO\DESKTOP\열혈 CPP 프로그래밍 실습\CH01\CH01_1\CH01_1\DEBUG\HELLOWORLD.OBJ
/OUT:"C:\USERS\LENOVO\DESKTOP\열혈 CPP 프로그래밍 실습\CH01\CH01_1\DEBUG\CH01_1.EXE" /INCREMENTAL /NOLOGO KERNEL32.LIB USER32.LIB GDI32.LIB WINSPOOL.LIB COMDLG32.LIB ADVAPI32.LIB SHELL32.LIB OLE32.LIB OLEAUT32.LIB UUID.LIB ODBC32.LIB ODBCCP32.LIB /MANIFEST /MANIFESTUAC:"level='asInvoker' uiAccess='false'" /manifest:embed /DEBUG:FASTLINK /PDB:"C:\USERS\LENOVO\DESKTOP\열혈 CPP 프로그래밍 실습\CH01\CH01_1\DEBUG\CH01_1.PDB" /SUBSYSTEM:CONSOLE /TLBID:1 /DYNAMICBASE /NXCOMPAT /IMPLIB:"C:\USERS\LENOVO\DESKTOP\열혈 CPP 프로그래밍 실습\CH01\CH01_1\DEBUG\CH01_1.LIB" /MACHINE:X86 DEBUG\HELLOWORLD.OBJ
^C:\USERS\LENOVO\DESKTOP\열혈 CPP 프로그래밍 실습\CH01\CH01_1\CH01_1\DEBUG\STRINGIO.OBJ
/OUT:"C:\USERS\LENOVO\DESKTOP\열혈 CPP 프로그래밍 실습\CH01\CH01_1\DEBUG\CH01_1.EXE" /INCREMENTAL /NOLOGO KERNEL32.LIB USER32.LIB GDI32.LIB WINSPOOL.LIB COMDLG32.LIB ADVAPI32.LIB SHELL32.LIB OLE32.LIB OLEAUT32.LIB UUID.LIB ODBC32.LIB ODBCCP32.LIB /MANIFEST /MANIFESTUAC:"level='asInvoker' uiAccess='false'" /manifest:embed /DEBUG:FASTLINK /PDB:"C:\USERS\LENOVO\DESKTOP\열혈 CPP 프로그래밍 실습\CH01\CH01_1\DEBUG\CH01_1.PDB" /SUBSYSTEM:CONSOLE /TLBID:1 /DYNAMICBASE /NXCOMPAT /IMPLIB:"C:\USERS\LENOVO\DESKTOP\열혈 CPP 프로그래밍 실습\CH01\CH01_1\DEBUG\CH01_1.LIB" /MACHINE:X86 DEBUG\STRINGIO.OBJ
