^C:\USERS\LENOVO\DESKTOP\CPP\PROBLEM\PROB_CH04_3\PROB_\NAMECARD.CPP|C:\USERS\LENOVO\DESKTOP\CPP\PROBLEM\PROB_CH04_3\PROB_\NAMECARD_MAIN.CPP
C:\USERS\LENOVO\DESKTOP\CPP\PROBLEM\PROB_CH04_3\PROB_\RELEASE\VC142.PDB
C:\USERS\LENOVO\DESKTOP\CPP\PROBLEM\PROB_CH04_3\PROB_\RELEASE\NAMECARD_MAIN.OBJ
C:\USERS\LENOVO\DESKTOP\CPP\PROBLEM\PROB_CH04_3\PROB_\RELEASE\NAMECARD.OBJ
^C:\USERS\LENOVO\DESKTOP\CPP\PROBLEM\PROB_CH04_3\PROB_\NAMECARD.CPP
C:\USERS\LENOVO\DESKTOP\CPP\PROBLEM\PROB_CH04_3\PROB_\RELEASE\VC142.PDB
^C:\USERS\LENOVO\DESKTOP\CPP\PROBLEM\PROB_CH04_3\PROB_\NAMECARD_MAIN.CPP
C:\USERS\LENOVO\DESKTOP\CPP\PROBLEM\PROB_CH04_3\PROB_\RELEASE\VC142.PDB
