^C:\USERS\LENOVO\DESKTOP\CPP\PROBLEM\PROB_CH01_2\PROB_CH01_2\FUNCTIONOVERLOADING.CPP
C:\USERS\LENOVO\DESKTOP\CPP\PROBLEM\PROB_CH01_2\PROB_CH01_2\DEBUG\VC142.PDB
C:\USERS\LENOVO\DESKTOP\CPP\PROBLEM\PROB_CH01_2\PROB_CH01_2\DEBUG\VC142.IDB
C:\USERS\LENOVO\DESKTOP\CPP\PROBLEM\PROB_CH01_2\PROB_CH01_2\DEBUG\FUNCTIONOVERLOADING.OBJ
